{
	"info": {
		"_postman_id": "cef9dbd3-b97b-4e00-85d1-b2b68ae1412f",
		"name": "RestApp-Capgemini",
		"schema": "https://schema.getpostman.com/json/collection/v2.1.0/collection.json"
	},
	"item": [
		{
			"name": "Hello",
			"request": {
				"method": "GET",
				"header": [],
				"url": {
					"raw": "http://localhost:8080",
					"protocol": "http",
					"host": [
						"localhost"
					],
					"port": "8080"
				},
				"description": "Hello Request"
			},
			"response": []
		},
		{
			"name": "Calculate",
			"request": {
				"method": "POST",
				"header": [],
				"body": {
					"mode": "raw",
					"raw": "{\r\n    \"data\":[5,4,6,1]\r\n}",
					"options": {
						"raw": {
							"language": "json"
						}
					}
				},
				"url": {
					"raw": "http://localhost:8080/calculate",
					"protocol": "http",
					"host": [
						"localhost"
					],
					"port": "8080",
					"path": [
						"calculate"
					]
				},
				"description": "Call Calculate REST API"
			},
			"response": []
		}
	],
	"event": [
		{
			"listen": "prerequest",
			"script": {
				"type": "text/javascript",
				"exec": [
					""
				]
			}
		},
		{
			"listen": "test",
			"script": {
				"type": "text/javascript",
				"exec": [
					""
				]
			}
		}
	]
}